{
  "elements": {
    "nodes": [
      {
        "data": {
          "id": "1",
          "name": "Test 1",
          "pyCode": "# a comment\nout='node1 receive: ' + str(test1var1)",
          "properties": {
            "prop": "test"
          }
        }
      },
      {
        "data": {
          "id": "2",
          "name": "Test 2",
          "pyCode": "# a comment\ntest2var1='node2 text1'\ntest2var2='node2 text2'\nout='node2 out'",
          "properties": {}
        }
      }
    ],
    "edges": [
      {
        "data": {
          "mapVariable": "test2var1:test1var1;tes2var2:test1var2",
          "id": "1",
          "source": "2",
          "target": "1"
        }
      }
    ]
  }
}