{
  "elements": {
    "nodes": [
      {
        "data": {
          "id": "1",
          "name": "Test",
          "pyCode": "# a comment\nout='node1 out'",
          "properties": {}
        }
      },
      {
        "data": {
          "id": "2",
          "name": "Test 2",
          "pyCode": "# a comment\nout='node2 out'",
          "properties": {}
        }
      }
    ],
    "edges": [
    ]
  }
}